<?xml version="1.0" encoding="utf-8"?>
<!-- Generator: Adobe Illustrator 24.1.1, SVG Export Plug-In . SVG Version: 6.00 Build 0)  -->
<svg version="1.1" id="Capa_1" xmlns="http://www.w3.org/2000/svg" xmlns:xlink="http://www.w3.org/1999/xlink" x="0px" y="0px"
	 viewBox="0 0 110 110" enable-background="new 0 0 110 110" xml:space="preserve">
<g>
	<path fill="#010101" d="M54.9068871,108.3581696C24.9145603,108.2851639,1.1321664,84.2398682,1.4315428,54.2916985
		C1.7250221,24.9334316,25.8196316,1.3931483,55.3211975,1.6418351
		c29.6345825,0.2498084,53.5502243,24.1996212,53.2480316,53.324131
		C108.2581024,84.9531403,84.6618729,108.4305878,54.9068871,108.3581696z"/>
	<path fill="#FFFFFF" d="M104.9269028,55.091095c-0.0758743,27.553299-22.6941833,49.9887238-50.2485504,49.8422394
		C27.3650703,104.788147,5.0549488,82.3127136,5.0713983,54.9588013C5.0879402,27.4512215,27.7644539,4.932816,55.3104515,5.0700326
		C82.5413589,5.2056799,105.0019226,27.8494072,104.9269028,55.091095z"/>
	<path fill="#03090C" d="M27.5836353,55.0229301c9.3160801-16.1396484,18.1452465-31.4357433,27.4129238-47.4915314
		c9.2660446,16.0625362,18.1412811,31.4475937,27.3965759,47.4915123c-5.0458984,0-9.3143005,0.1881447-13.5568848-0.0618973
		c-3.1671829-0.1866646-4.2654037,0.682663-4.2060165,4.0567627c0.2105713,11.9641342-0.0341187,23.9361038,0.1567917,35.9009094
		c0.0529404,3.3175049-0.9419441,4.3562317-4.208313,4.1169281c-3.8025703-0.278595-7.656086-0.2731247-11.4595757-0.0009003
		c-3.1779213,0.2274704-3.8940659-0.9705276-3.8546982-3.9618607c0.1574745-11.9657745-0.0325394-23.9361801,0.1307373-35.9018059
		c0.0425529-3.1185112-0.6007805-4.4747467-4.0441132-4.2230225C37.0758476,55.2605667,32.7604141,55.0229301,27.5836353,55.0229301
		z"/>
	<path fill="#00AAFF" d="M54.9988098,11.1090603C63.078083,25.078064,70.6115036,38.103302,78.6373444,51.9799232
		c-4.7075577,0-8.6120148,0.1938782-12.4870453-0.0604744c-3.1816902-0.2088356-4.2716179,0.6883392-4.2106094,4.0673447
		c0.2132607,11.811676-0.053093,23.6320724,0.1645889,35.4435883c0.0651894,3.5370636-0.9908371,4.4574051-4.4619102,4.4055481
		c-9.6359634-0.1439819-9.638298,0.0196304-9.6384315-9.6123199c-0.0001373-10.1513748-0.131134-20.3054352,0.077095-30.4525299
		c0.0642738-3.1320572-0.8526154-4.0532951-3.9080544-3.8533478c-3.9370766,0.2576408-7.9037628,0.0627251-12.8113613,0.0627251
		C39.3283806,38.2050171,46.9104233,25.094799,54.9988098,11.1090603z"/>
</g>
</svg>
