<?xml version="1.0" encoding="utf-8"?>
<!-- Generator: Adobe Illustrator 24.1.1, SVG Export Plug-In . SVG Version: 6.00 Build 0)  -->
<svg version="1.1" id="Capa_1" xmlns="http://www.w3.org/2000/svg" xmlns:xlink="http://www.w3.org/1999/xlink" x="0px" y="0px"
	 viewBox="0 0 110 110" enable-background="new 0 0 110 110" xml:space="preserve">
<g>
	<path fill="#010101" d="M54.9068871,108.3581696C24.9145603,108.2851639,1.1321664,84.2398682,1.4315428,54.2916985
		C1.7250221,24.9334316,25.8196316,1.3931483,55.3211975,1.6418351
		c29.6345825,0.2498084,53.5502243,24.1996212,53.2480316,53.324131
		C108.2581024,84.9531403,84.6618729,108.4305878,54.9068871,108.3581696z"/>
	<path fill="#FFFFFF" d="M104.9269028,55.091095c-0.0758743,27.553299-22.6941833,49.9887238-50.2485504,49.8422394
		C27.3650703,104.788147,5.0549488,82.3127136,5.0713983,54.9588013C5.0879402,27.4512215,27.7644539,4.932816,55.3104515,5.0700326
		C82.5413589,5.2056799,105.0019226,27.8494072,104.9269028,55.091095z"/>
	<path fill="#03090C" d="M53.5082359,25.8809795c16.0564842,9.458704,31.2737541,18.4230366,47.2468071,27.8325977
		C84.6110458,62.8369484,69.1479568,71.575531,53.0226707,80.6883316c0.0447044-5.0457001-0.1056175-9.3156052,0.182003-13.555809
		c0.2147141-3.1654053-0.6448479-4.2712822-4.0193405-4.2417946c-11.9655342,0.1045723-23.934864-0.2461777-35.9008942-0.1612778
		c-3.3178396,0.0235443-4.3477135-0.9804993-4.0794811-4.2446175c0.3122721-3.7999535,0.3409414-7.6533661,0.1024256-11.4591179
		c-0.1993055-3.1798134,1.0049868-3.8853188,3.9958534-3.8194466c11.9639177,0.2634773,23.9355316,0.1795235,35.8992424,0.4488029
		c3.1180153,0.070179,4.4798927-0.5611115,4.2586861-4.0065422C53.1865158,35.3707123,53.4623718,31.0575562,53.5082359,25.8809795z
		"/>
	<path fill="#00AAFF" d="M97.1774979,53.6841316C83.1374664,61.639328,70.0459976,69.0570602,56.0988121,76.9596405
		c0.0417061-4.7073746-0.1175728-8.6133957,0.1711044-12.4860153c0.2370148-3.1797142-0.6504669-4.2775497-4.0298805-4.246479
		c-11.8131065,0.1086044-23.6306725-0.2624588-35.4436569-0.1494293c-3.5374994,0.0338478-4.4484529-1.0302887-4.3658457-4.5007668
		c0.229351-9.6343117,0.0657606-9.6380959,9.6973352-9.5528946c10.1509762,0.089798,20.3057995,0.0487709,30.450655,0.3468895
		c3.1313629,0.0920181,4.060688-0.8166733,3.8878212-3.873764c-0.2227516-3.9392052,0.0072975-7.904007,0.0507774-12.8114147
		C70.2214355,37.7742615,83.2639694,45.4721565,97.1774979,53.6841316z"/>
</g>
</svg>
